{
  "_id": ObjectId
  (
  "58ff8e1927e9ce4791e506a4"
  ),
  "Puesto": "Escritor Freelance",
  "Descripcion": "Buscamos un escritor autonomo para redactar cuentos dirigidos a niños de entre 4 y 12 años",
  "Plazas": 1,
  "Requisitos": "licenciad@ con experiencia",
  "Duracion": "6 meses",
  "Jornada": "completa",
  "Sueldo": 500,
  "Lugar": "Calle San Pacia 4 4, 08001 Barcelona",
  "Usuarios_contratados": [
    ObjectId
    (
    "58ff8e0627e9ce4791e506a3"
    )
  ],
  "Inscritos": [
    {
      "_id": ObjectId
      (
      "58ff8e0627e9ce4791e506a3"
      ),
      "Nombre_usuario": "Jose",
      "Apellidos_usuario": "Manalo",
      "Email_usuario":  "josemanalo@gmail.com"
    }
  ],
  "Fecha_publicacion": ISODate
  (
  "2017-04-25T18:39:14.094Z"
  ),
  "Id_empleador": ObjectId
  (
  "58ff6efc7b1aea530cebe1f4"
  )
}

{
  "_id": ObjectId
  (
  "5900aef9e85b3f593fbfe1d3"
  ),
  "Puesto": "Traductor Español-Ingles",
  "Descripcion": "Se precisan traductores Español-Inglés para hacer de guias turisticas ",
  "Plazas": 5,
  "Requisitos": "Experiencia de haber trabajado de guia turistica de almenos 1 año",
  "Duracion": "8 meses",
  "Jornada": "completa",
  "Sueldo": 600,
  "Lugar": "calle ruiz, 7, 28004 Madrid",
  "Usuarios_contratados": [],
  "Inscritos": [
    {
      "_id": ObjectId
      (
      "58ff795027e9ce4791e506a1"
      ),
      "Nombre_usuario": "Juan",
      "Apellidos_usuario": "De la Cruz",
      "Email_usuario":  "jdelacruz@gmail.com"
    },
    {
      "_id": ObjectId
      (
      "59052da5b22606372874ec11"
      ),
      "Nombre_usuario": "Samba",
      "Apellidos_usuario": "Gueye",
      "Email_usuario":  "gueye.samba@gmail.com"
    }
  ],
  "Fecha_publicacion": ISODate
  (
  "2017-04-26T14:30:52.691Z"
  ),
  "Id_empleador": ObjectId
  (
  "58ff71f80954c6e5c2ed021f"
  )
}

{
  "_id": ObjectId
  (
  "5900aef9e85b3f593fbfe1d4"
  ),
  "Puesto": "Suplente profesor de mates",
  "Descripcion": "Se busca alguien que maneja bien las mahtes para dar clases particulares a niñ@s durante todo el año escolar",
  "Requisitos": "Bachellerato y con ganas de trabajar",
  "Duracion": "4 meses",
  "Jornada": "completa",
  "Sueldo": 400,
  "Lugar": "Carrer Comte d’Urgell, 187, edifici 11, 08036 Barcelona",
  "Plazas": 2,
  "Usuarios_contratados": [],
  "Inscritos": [
    {
      "_id": ObjectId
      (
      "59052da5b22606372874ec11"
      ),
      "Nombre_usuario": "Samba",
      "Apellidos_usuario": "Gueye",
      "Email_usuario":  "gueye.samba@gmail.com"
    }
  ],
  "Fecha_publicacion": ISODate
  (
  "2017-04-26T14:47:48.132Z"
  ),
  "Id_empleador": ObjectId
  (
  "58ff75a70954c6e5c2ed0221"
  )
}

{
  "_id": ObjectId
  (
  "5900aef9e85b3f593fbfe1d5"
  ),
  "Puesto": "Fotógrafo",
  "Descripcion": "Los excursionistas buscan alguien que se dedicara a hacerles fotos mientras que hagan sus actividades",
  "Requisitos": "Tener un buen fondo para subir montañas",
  "Duracion": "5 meses",
  "Jornada": "completa",
  "Sueldo": 600,
  "Lugar": "Ronda de la Universitat, 25, 08007 Barcelona",
  "Plazas": 4,
  "Usuarios_contratados": [],
  "Inscritos": [],
  "Fecha_publicacion": ISODate
  (
  "2017-04-26T14:47:48.132Z"
  ),
  "Id_empleador": ObjectId
  (
  "58ff71f80954c6e5c2ed021f"
  )
}

{
  "_id": ObjectId
  (
  "5900aef9e85b3f593fbfe1d6"
  ),
  "Puesto": "Dependiente de tienda de videojuegos",
  "Descripcion": "Una gran empresa precisa incorporar en su equipo dependientes para atencion al publico",
  "Requisitos": "Hablar Español, Catalan y tener una buena presentacion",
  "Jornada": "completa",
  "Duracion": "6 meses",
  "Sueldo": 300,
  "Lugar": "Carrer de Floridablanca 148 Local 1, 08011 Barcelona",
  "Plazas": 5,

  "Inscritos": [],
  "Usuarios_contratados": [],
  "Fecha_publicacion": ISODate
  (
  "2017-04-26T14:58:40.924Z"
  ),
  "Id_empleador": ObjectId
  (
  "58ff754e0954c6e5c2ed0220"
  )
}